tb_processor.vcd
$date
	Mon Feb 17 08:20:00 2025
$end
$version
	Icarus Verilog
$end
$timescale
	1ps
$end
$scope module tb_processor $end
$var parameter 32 ! CLK_PERIOD $end
$var reg 1 " clk $end
$var reg 1 # reset_n $end
$scope module dut $end
$var wire 1 " clk $end
$var wire 1 # reset_n $end
$var wire 1 $ s1_sel_leds $end
$var wire 1 % s0_sel_mem $end
$var wire 32 & processor_rdata [31:0] $end
$var wire 4 ' mem_wstrb [3:0] $end
$var wire 32 ( mem_wdata [31:0] $end
$var wire 1 ) mem_rstrb $end
$var wire 32 * mem_rdata [31:0] $end
$var wire 32 + mem_addr [31:0] $end
$var reg 5 , leds [4:0] $end
$scope module D_mem_unit $end
$var wire 1 " clk $end
$var wire 1 - mem_rstrb $end
$var wire 4 . mem_wmask [3:0] $end
$var wire 30 / word_addr [29:0] $end
$var wire 32 0 mem_wdata [31:0] $end
$var wire 32 1 mem_addr [31:0] $end
$var parameter 432 2 MEM_FILE $end
$var parameter 32 3 SIZE $end
$var reg 32 4 mem_rdata [31:0] $end
$var integer 32 5 i [31:0] $end
$upscope $end
$scope module dv_sel $end
$var wire 1 % s0_sel_mem $end
$var wire 1 $ s1_sel_leds $end
$var wire 1 6 mem_space $end
$var wire 1 7 leds_space $end
$var wire 32 8 addr [31:0] $end
$upscope $end
$scope module processor $end
$var wire 1 9 LOAD_sign $end
$var wire 32 : aluIn1 [31:0] $end
$var wire 32 ; aluOut [31:0] $end
$var wire 1 < aluWr $end
$var wire 1 " clk $end
$var wire 1 = funct3IsShift $end
$var wire 1 > isALU $end
$var wire 1 ? jumpToPCplusImm $end
$var wire 1 @ mem_rbusy $end
$var wire 32 A mem_rdata [31:0] $end
$var wire 1 ) mem_rstrb $end
$var wire 1 B mem_wbusy $end
$var wire 4 C mem_wmask [3:0] $end
$var wire 1 D needToWait $end
$var wire 1 E predicate $end
$var wire 1 # reset $end
$var wire 1 F writeBack $end
$var wire 32 G writeBackData [31:0] $end
$var wire 5 H rdId [4:0] $end
$var wire 32 I mem_wdata [31:0] $end
$var wire 1 J mem_halfwordAccess $end
$var wire 1 K mem_byteAccess $end
$var wire 32 L mem_addr [31:0] $end
$var wire 32 M loadstore_addr [31:0] $end
$var wire 1 N isStore $end
$var wire 1 O isSYSTEM $end
$var wire 1 P isLoad $end
$var wire 1 Q isLUI $end
$var wire 1 R isJALR $end
$var wire 1 S isJAL $end
$var wire 1 T isBranch $end
$var wire 1 U isAUIPC $end
$var wire 1 V isALUreg $end
$var wire 1 W isALUimm $end
$var wire 8 X funct3Is [7:0] $end
$var wire 32 Y aluPlus [31:0] $end
$var wire 33 Z aluMinus [32:0] $end
$var wire 32 [ aluIn2 [31:0] $end
$var wire 1 \ aluBusy $end
$var wire 32 ] Uimm [31:0] $end
$var wire 32 ^ Simm [31:0] $end
$var wire 4 _ STORE_wmask [3:0] $end
$var wire 32 ` PCplusImm [31:0] $end
$var wire 32 a PCplus4 [31:0] $end
$var wire 1 b LTU $end
$var wire 1 c LT $end
$var wire 16 d LOAD_halfword [15:0] $end
$var wire 32 e LOAD_data [31:0] $end
$var wire 8 f LOAD_byte [7:0] $end
$var wire 32 g Jimm [31:0] $end
$var wire 32 h Iimm [31:0] $end
$var wire 1 i EQ $end
$var wire 32 j Bimm [31:0] $end
$var parameter 32 k ADDR_WIDTH $end
$var parameter 34 l EXECUTE $end
$var parameter 32 m EXECUTE_bit $end
$var parameter 32 n FETCH_INSTR $end
$var parameter 32 o FETCH_INSTR_bit $end
$var parameter 32 p NB_STATES $end
$var parameter 32 q RESET_ADDR $end
$var parameter 35 r WAIT_ALU_OR_MEM $end
$var parameter 32 s WAIT_ALU_OR_MEM_bit $end
$var parameter 33 t WAIT_INSTR $end
$var parameter 32 u WAIT_INSTR_bit $end
$var reg 32 v PC [31:0] $end
$var reg 32 w aluReg [31:0] $end
$var reg 5 x aluShamt [4:0] $end
$var reg 32 y cycles [31:0] $end
$var reg 30 z instr [31:2] $end
$var reg 32 { rs1 [31:0] $end
$var reg 32 | rs2 [31:0] $end
$var reg 4 } state [3:0] $end
$upscope $end
$upscope $end
$upscope $end
$enddefinitions $end
$comment Show the parameter values. $end
$dumpall
b1 u
b10 t
b11 s
b1000 r
b0 q
b100 p
b0 o
b1 n
b10 m
b100 l
b100000 k
b10000000000 3
b1011110110100001101111011011010110010100101111011010100110101001100001011101000110010101100101011011100010111101000100011001010111001101101011011101000110111101110000001011110111001001101001011100110110001100101101011101100010110101110011011011110110001100101111011001100110100101110010011011010111011101100001011100100110010100101111011001100110100101110010011011010111011101100001011100100110010100101110011010000110010101111000 2
b1010 !
$end
#0
$dumpvars
bx }
bx |
bx {
bx z
b0 y
b0 x
bx w
bx v
bx0 j
xi
bx h
bx0 g
bx f
bx e
bx d
xc
xb
bx a
bx `
bx _
bx ^
bx000000000000 ]
0\
bx [
bx Z
bx Y
bx X
xW
xV
xU
xT
xS
xR
xQ
xP
xO
xN
bx M
bx L
xK
xJ
bx I
bx H
bx G
xF
xE
xD
bx C
0B
bx A
0@
x?
x>
x=
x<
bx ;
bx :
x9
bx 8
x7
x6
b10000000000 5
bx 4
bx 1
bx 0
bx /
bx .
x-
bx ,
bx +
bx *
x)
bx (
bx '
bx &
x%
x$
x#
x"
$end
#31000
1#
#61000
b0 ,
0"
0#
#65000
0-
b0 .
0)
b0 '
b0 C
0<
b100 a
b0 v
b1000 }
b1 y
1"
#70000
0"
#75000
b10 y
1"
#80000
0"
#85000
b11 y
1"
#90000
0"
#95000
b100 y
1"
#100000
0"
#105000
b101 y
1#
1"
#110000
0"
#115000
0$
07
1%
16
b0 /
b0 +
b0 1
b0 8
b0 L
0F
1-
1)
b110 y
b1 }
1"
#120000
0"
#125000
09
b0x000000000000000x00000x0x0x00xx e
b0x0x00xx f
b0x00000x000x00xx d
0-
0)
b1000000000000000000000100010011 &
b1000000000000000000000100010011 A
b1000000000000000000000100010011 *
b1000000000000000000000100010011 4
b10 }
b111 y
1"
#130000
0"
#135000
b10000000000 G
0E
b10000000000 ;
0D
1c
b1 _
b100000000 /
1b
0i
b100010011 d
b10011 f
b10000000000 +
b10000000000 1
b10000000000 8
b10000000000 L
1F
0=
b111111111111111111111110000000000 Z
1<
b10000000000 Y
b10000000000 [
1>
0?
b1000000000000000000000000000000 `
b10000000000 M
b10011 e
b10 H
b1 X
b1000000000000000000000000000000 ]
b10000000000 h
b10000000010 ^
b10000000010 j
b10000000000 g
0P
1W
0N
0V
0O
0S
0R
0Q
0U
0T
1K
0J
b0 (
b0 0
b0 I
b1000 y
b100 }
b10000000000000000000001000100 z
b0 |
b0 :
b0 {
1"
#140000
0"
#145000
b1 /
b100 +
b100 1
b100 8
b100 L
0F
1-
1)
0<
b1 }
b1000 a
b1000000000000000000000000000100 `
b100 v
b1001 y
1"
#150000
0"
#155000
19
b11111111111111111111111111101111 e
b11101111 f
0-
b11101111 d
0)
b100000000000000011101111 &
b100000000000000011101111 A
b1010 y
b10 }
b100000000000000011101111 *
b100000000000000011101111 4
1"
#160000
0"
#165000
b1000 ;
09
b10 _
b1000 G
b0 e
b0 /
b0 f
b1 +
b1 1
b1 8
b1 L
1F
b111111111111111111111111111111000 Z
b1000 Y
b1000 [
0>
1?
b1100 `
b1 M
b1 H
b100000000000000000000000 ]
b1000 h
b1 ^
b100000000000 j
b1000 g
0W
1S
bx (
bx 0
bx I
b100 }
b1000000000000000111011 z
bx |
b1011 y
1"
#170000
0"
#175000
b11 /
b1100 +
b1100 1
b1100 8
b1100 L
0F
1-
b10000 G
1)
b1100 y
b1 }
b10000 a
b10100 `
b1100 v
1"
#180000
0"
#185000
b111 e
b111 f
b11110110111 d
0-
0)
b1000000000000000000011110110111 &
b1000000000000000000011110110111 A
b1000000000000000000011110110111 *
b1000000000000000000011110110111 4
b10 }
b1101 y
1"
#190000
0"
#195000
b11111111111111111111110000000000 ;
b1000000 e
b1000000 f
b1000 _
b1000000000000000000000000000000 G
b100000011 /
b100000000000000 d
b10000001111 +
b10000001111 1
b10000001111 8
b10000001111 L
1F
b111111111111111111111110000000000 Z
b10000000000 Y
b10000000000 [
b10000001111 M
0?
b1000000000000000000000000001100 `
b1111 H
b1000000000000000000000000000000 ]
b10000000000 h
b10000001111 ^
b110000001110 j
b10000000000 g
0S
1Q
b0 (
b0 0
b0 I
b1110 y
b100 }
b10000000000000000000111101101 z
b0 |
1"
#200000
0"
#205000
b100 /
b10000 +
b10000 1
b10000 8
b10000 L
0F
1-
1)
b1 }
b10100 a
b1000000000000000000000000010000 `
b10000 v
b1111 y
1"
#210000
0"
#215000
b1 e
b1 f
0-
b110110000 d
0)
b1101100000000011100010011 &
b1101100000000011100010011 A
b10000 y
b10 }
b1101100000000011100010011 *
b1101100000000011100010011 4
1"
#220000
0"
#225000
b11011 ;
b11011 G
b110 /
b11011 +
b11011 1
b11011 8
b11011 L
1F
b1101100000000000000010000 `
b111111111111111111111111111100101 Z
1<
b11011 Y
b11011 [
1>
b11011 M
b1110 H
b1101100000000000000000000 ]
b11011 h
b1110 ^
b1110 j
b100000011010 g
1W
0Q
bx (
bx 0
bx I
b100 }
b11011000000000111000100 z
bx |
b10001 y
1"
#230000
0"
#235000
b101 /
b10100 +
b10100 1
b10100 8
b10100 L
0F
1-
1)
0<
b10010 y
b1 }
b11000 a
b1101100000000000000010100 `
b10100 v
1"
#240000
0"
#245000
b0 e
b0 f
b11100111 d
0-
0)
b111001111010000000100011 &
b111001111010000000100011 A
b111001111010000000100011 *
b111001111010000000100011 4
b10 }
b10011 y
1"
#250000
0"
#255000
b0 ;
b0 G
09
b0 &
b0 A
1$
17
0%
06
b10000000000000000000000000000 /
b0 d
b0 f
b0 .
b1000000000000000000000000000000 +
b1000000000000000000000000000000 1
b1000000000000000000000000000000 8
b1000000000000000000000000000000 L
1D
b10100 `
b1111 '
b1111 C
b1110 [
0>
b0 e
b1111 _
0c
b0 H
b100 X
b111001111010000000000000 ]
b1110 h
b0 ^
b0 j
b1111010000000001110 g
0W
1N
0K
b11011 (
b11011 0
b11011 I
0b
b10100 y
b100 }
b1110011110100000001000 z
b11011 |
b1000000000000000000000000000000 M
b1000000000000000000000000001110 Y
b111111111111111111111111110010 Z
b1000000000000000000000000000000 :
b1000000000000000000000000000000 {
1"
#260000
0"
#265000
b11011 f
b0 '
b0 C
b11011 e
b11011 d
b11011 &
b11011 A
b1000 }
b11100 a
b11000 `
b11000 v
b10101 y
b11011 ,
1"
#270000
0"
#275000
19
b100011 f
b111001111010000000100011 e
b1010000000100011 d
b111001111010000000100011 &
b111001111010000000100011 A
1-
0$
07
1%
16
b110 /
b11000 +
b11000 1
b11000 8
b11000 L
1)
b10110 y
b1 }
1"
#280000
0"
#285000
09
b10010011 f
b11110010011 e
b11110010011 d
0-
0)
b11110010011 &
b11110010011 A
b11110010011 *
b11110010011 4
b10 }
b10111 y
1"
#290000
0"
#295000
1E
b0 /
1i
b0 +
b0 1
b0 8
b0 L
1F
0D
19
1<
b0 [
1>
b11111111111111111111111110010011 e
b1 _
0c
b1111 H
b1 X
b0 ]
b0 h
b1111 ^
b100000001110 j
b0 g
1W
0N
1K
b0 (
b0 0
b0 I
0b
b11000 y
b100 }
b111100100 z
b0 |
b0 M
b0 Y
b0 Z
b0 :
b0 {
1"
#300000
0"
#305000
b111 /
b11100 +
b11100 1
b11100 8
b11100 L
0F
1-
1)
0<
b1 }
b100000 a
b11100 `
b11100 v
b11001 y
1"
#310000
0"
#315000
09
b1101111 e
b1101111 f
0-
b1101111 d
0)
b1100000000000000001101111 &
b1100000000000000001101111 A
b11010 y
b10 }
b1100000000000000001101111 *
b1100000000000000001101111 4
1"
#320000
0"
#325000
b11000 ;
0E
1c
b100000 G
b0 /
1b
0i
b0 +
b0 1
b0 8
b0 L
1F
b111111111111111111111111111101000 Z
b11000 Y
b11000 [
0>
1?
b110100 `
b0 H
b1100000000000000000000000 ]
b11000 h
b0 ^
b0 j
b11000 g
0W
1S
bx (
bx 0
bx I
b100 }
b11000000000000000011011 z
bx |
b11011 y
1"
#330000
0"
#335000
b1101 /
b110100 +
b110100 1
b110100 8
b110100 L
0F
1-
b111000 G
1)
b11100 y
b1 }
b111000 a
b1001100 `
b110100 v
1"
#340000
0"
#345000
b10011 e
b10011 f
b11100010011 d
0-
0)
b10100000000011100010011 &
b10100000000011100010011 A
b10100000000011100010011 *
b10100000000011100010011 4
b10 }
b11101 y
1"
#350000
0"
#355000
b101 ;
b10 _
b101 G
b111 e
b1 /
b111 f
b101 +
b101 1
b101 8
b101 L
1F
b111111111111111111111111111111011 Z
1<
b101 Y
b101 [
1>
0?
b10100000000000000110100 `
b101 M
b1110 H
b10100000000000000000000 ]
b101 h
b1110 ^
b1110 j
b100000000100 g
1W
0S
b11110 y
b100 }
b101000000000111000100 z
1"
#360000
0"
#365000
b1110 /
b111000 +
b111000 1
b111000 8
b111000 L
0F
1-
1)
0<
b1 }
b111100 a
b10100000000000000111000 `
b111000 v
b11111 y
1"
#370000
0"
#375000
19
b11111111111111111111111110010100 e
b10010100 f
0-
b1001010011100011 d
0)
b11111110111001111001010011100011 &
b11111110111001111001010011100011 A
b100000 y
b10 }
b11111110111001111001010011100011 *
b11111110111001111001010011100011 4
1"
#380000
0"
#385000
1?
1E
b0 G
bx ;
0%
06
b111111111111111111111111111010 /
b11111111111111111111111111101001 +
b11111111111111111111111111101001 1
b11111111111111111111111111101001 8
b11111111111111111111111111101001 L
1=
b100000 `
0>
b11111111111111111111111111101001 M
b11111111111111111001010011100011 e
b11 _
b1001 H
b10 X
b11111110111001111001000000000000 ]
b11111111111111111111111111101110 h
b11111111111111111111111111101001 ^
b11111111111111111111111111101000 j
b11111111111101111001011111101110 g
0W
1T
0K
1J
b101000000000000010100000101 (
b101000000000000010100000101 0
b101000000000000010100000101 I
b100 }
b111111101110011110010100111000 z
b101 |
b100001 y
1"
#390000
0"
#395000
1-
1%
16
b1000 /
b100000 +
b100000 1
b100000 8
b100000 L
1)
b100010 y
b1 }
b100100 a
b1000 `
b100000 v
1"
#400000
0"
#405000
09
b111 f
b11100010011 e
b11100010011 d
0-
0)
b100000000011100010011 &
b100000000011100010011 A
b100000000011100010011 *
b100000000011100010011 4
b10 }
b100011 y
1"
#410000
0"
#415000
0E
b1 G
b1 ;
b0 /
0D
b1 +
b1 1
b1 8
b1 L
1F
0=
0?
b100000000000000100000 `
1<
1>
b1 M
b111 e
b10 _
b111111111111111111111111111111111 Z
b1110 H
b1 X
b100000000000000000000 ]
b1 h
b1110 ^
b1110 j
b100000000000 g
1W
0T
1K
0J
b1 Y
b1 [
b1000000000000000100000001000 (
b1000000000000000100000001000 0
b1000000000000000100000001000 I
b100100 y
b100 }
b1000000000111000100 z
b1000 |
1"
#420000
0"
#425000
b1001 /
b100100 +
b100100 1
b100100 8
b100100 L
0F
1-
1)
0<
b1 }
b101000 a
b100000000000000100100 `
b100100 v
b100101 y
1"
#430000
0"
#435000
b10111 e
b10111 f
0-
b1011100110011 d
0)
b111101110001011100110011 &
b111101110001011100110011 A
b100110 y
b10 }
b111101110001011100110011 *
b111101110001011100110011 4
1"
#440000
0"
#445000
bx G
1E
1D
bx ;
b11 /
b1111 +
b1111 1
b1111 8
b1111 L
1F
1=
b111101110001000000100100 `
1<
b0 [
b11110111 e
b1100 _
b11110111 d
b0 f
0c
b10 X
b111101110001000000000000 ]
b1111 h
b1110001100000001110 g
0W
1V
0K
1J
b0 (
b0 0
b0 I
0b
0i
b100 }
b1111011100010111001100 z
b0 |
b1111 M
b1 Y
b1 Z
b1 :
b1 {
b100111 y
1"
#450000
0"
#455000
b1 G
0<
b1 ;
b101000 y
b1000 }
b101100 a
b111101110001000000101000 `
b101000 v
b1 w
1"
#460000
0"
#465000
b1010 /
b101000 +
b101000 1
b101000 8
b101000 L
0F
1-
1)
b1 }
b101001 y
1"
#470000
0"
#475000
b1000000 f
b100000000000000 e
0-
b100000000000000 d
0)
b1000000000000000000011010110111 &
b1000000000000000000011010110111 A
b101010 y
b10 }
b1000000000000000000011010110111 *
b1000000000000000000011010110111 4
1"
#480000
0"
#485000
b1000000000000000000000000000000 G
0E
1c
b11111111111111111111110000000000 ;
1b
b100000011 /
b11010110111 d
0D
b10000001101 +
b10000001101 1
b10000001101 8
b10000001101 L
1F
0=
b1000000000000000000000000101000 `
b10000000000 [
0>
b110 e
b10 _
b110 f
b1101 H
b1 X
b1000000000000000000000000000000 ]
b10000000000 h
b10000001101 ^
b110000001100 j
b10000000000 g
0V
1Q
1K
0J
0i
b100 }
b10000000000000000000110101101 z
b10000001101 M
b10000000000 Y
b111111111111111111111110000000000 Z
b0 :
b0 {
b101011 y
1"
#490000
0"
#495000
b1011 /
b101100 +
b101100 1
b101100 8
b101100 L
0F
1-
1)
b101100 y
b1 }
b110000 a
b1000000000000000000000000101100 `
b101100 v
1"
#500000
0"
#505000
19
b11111111111111111111111110100000 e
b10100000 f
b1010000000100011 d
0-
0)
b111001101010000000100011 &
b111001101010000000100011 A
b111001101010000000100011 *
b111001101010000000100011 4
b10 }
b101101 y
1"
#510000
0"
#515000
09
b0 ;
b11011 d
b0 G
b11011 &
b11011 A
1$
17
0%
06
b10000000000000000000000000000 /
b11011 f
b0 .
b1000000000000000000000000000000 +
b1000000000000000000000000000000 1
b1000000000000000000000000000000 8
b1000000000000000000000000000000 L
1D
b101100 `
b1111 '
b1111 C
b1110 [
b11011 e
b1111 _
0c
b0 H
b100 X
b111001101010000000000000 ]
b1110 h
b0 ^
b0 j
b1101010000000001110 g
1N
0Q
0K
b1 (
b1 0
b1 I
0b
b101110 y
b100 }
b1110011010100000001000 z
b1 |
b1000000000000000000000000000000 M
b1000000000000000000000000001110 Y
b111111111111111111111111110010 Z
b1000000000000000000000000000000 :
b1000000000000000000000000000000 {
1"
#520000
0"
#525000
b1 f
b0 '
b0 C
b1 e
b1 d
b1 &
b1 A
b1000 }
b110100 a
b110000 `
b110000 v
b101111 y
b1 ,
1"
#530000
0"
#535000
19
b100011 f
b111001101010000000100011 e
b1010000000100011 d
b111001101010000000100011 &
b111001101010000000100011 A
1-
0$
07
1%
16
b1100 /
b110000 +
b110000 1
b110000 8
b110000 L
1)
b110000 y
b1 }
1"
#540000
0"
#545000
b10010011 f
b101111000011110010011 e
b1000011110010011 d
0-
0)
b101111000011110010011 &
b101111000011110010011 A
b101111000011110010011 *
b101111000011110010011 4
b10 }
b110001 y
1"
#550000
0"
#555000
b1 G
b1 ;
b0 /
b10000111 f
b1 +
b1 1
b1 8
b1 L
1F
0D
b101111000000000110000 `
1<
b1 [
1>
b11111111111111111111111110000111 e
b10 _
1c
b1111 H
b1 X
b101111000000000000000 ]
b1 h
b1111 ^
b100000001110 j
b1111000100000000000 g
1W
0N
1K
b1000000000000000100000001000 (
b1000000000000000100000001000 0
b1000000000000000100000001000 I
1b
b110010 y
b100 }
b1011110000111100100 z
b1000 |
b1 M
b1 Y
b111111111111111111111111111111111 Z
b0 :
b0 {
1"
#560000
0"
#565000
b1101 /
b110100 +
b110100 1
b110100 8
b110100 L
0F
1-
1)
0<
b1 }
b111000 a
b101111000000000110100 `
b110100 v
b110011 y
1"
#570000
0"
#575000
09
b111 e
b111 f
0-
b11100010011 d
0)
b10100000000011100010011 &
b10100000000011100010011 A
b110100 y
b10 }
b10100000000011100010011 *
b10100000000011100010011 4
1"
#580000
0"
#585000
b101 G
b101 ;
b1 /
b101 +
b101 1
b101 8
b101 L
1F
b10100000000000000110100 `
b111111111111111111111111111111011 Z
1<
b101 Y
b101 [
b101 M
b1110 H
b10100000000000000000000 ]
b101 h
b1110 ^
b1110 j
b100000000100 g
bx (
bx 0
bx I
b100 }
b101000000000111000100 z
bx |
b110101 y
1"
#590000
0"
#595000
b1110 /
b111000 +
b111000 1
b111000 8
b111000 L
0F
1-
1)
0<
b110110 y
b1 }
b111100 a
b10100000000000000111000 `
b111000 v
1"
#600000
0"
#605000
19
b11111111111111111111111110010100 e
b10010100 f
b1001010011100011 d
0-
0)
b11111110111001111001010011100011 &
b11111110111001111001010011100011 A
b11111110111001111001010011100011 *
b11111110111001111001010011100011 4
b10 }
b110111 y
1"
#610000
0"
#615000
1?
1E
b1 ;
b0 G
0%
06
b111111111111111111111111111010 /
b11111111111111111111111111101010 +
b11111111111111111111111111101010 1
b11111111111111111111111111101010 8
b11111111111111111111111111101010 L
1=
b100000 `
0>
b11111111111111111111111011100111 e
b1100 _
b1111111011100111 d
b11100111 f
b1001 H
b10 X
b11111110111001111001000000000000 ]
b11111111111111111111111111101110 h
b11111111111111111111111111101001 ^
b11111111111111111111111111101000 j
b11111111111101111001011111101110 g
0W
1T
0K
1J
b1010000000000000101 (
b1010000000000000101 0
b1010000000000000101 I
b111000 y
b100 }
b111111101110011110010100111000 z
b101 |
b11111111111111111111111111101010 M
b110 Y
b111111111111111111111111111111100 Z
b1 :
b1 {
1"
#620000
0"
#625000
1-
1%
16
b1000 /
b100000 +
b100000 1
b100000 8
b100000 L
1)
b1 }
b100100 a
b1000 `
b100000 v
b111001 y
1"
#630000
0"
#635000
09
b10000 f
b10000 e
0-
b10000 d
0)
b100000000011100010011 &
b100000000011100010011 A
b111010 y
b10 }
b100000000011100010011 *
b100000000011100010011 4
1"
#640000
0"
#645000
0E
b1 G
b1 ;
b0 /
0D
b1 +
b1 1
b1 8
b1 L
1F
0=
0?
b100000000000000100000 `
1<
1>
b111 e
b10 _
b11100010011 d
b111 f
b1110 H
b1 X
b100000000000000000000 ]
b1 h
b1110 ^
b1110 j
b100000000000 g
1W
0T
1K
0J
b1 [
b1000000000000000100000001000 (
b1000000000000000100000001000 0
b1000000000000000100000001000 I
b100 }
b1000000000111000100 z
b1000 |
b1 M
b1 Y
b111111111111111111111111111111111 Z
b0 :
b0 {
b111011 y
1"
#650000
0"
#655000
b1001 /
b100100 +
b100100 1
b100100 8
b100100 L
0F
1-
1)
0<
b111100 y
b1 }
b101000 a
b100000000000000100100 `
b100100 v
1"
#660000
0"
#665000
b10111 e
b10111 f
b1011100110011 d
0-
0)
b111101110001011100110011 &
b111101110001011100110011 A
b111101110001011100110011 *
b111101110001011100110011 4
b10 }
b111101 y
1"
#670000
0"
#675000
b1 G
b1 ;
0E
1D
b11 /
b1111 +
b1111 1
b1111 8
b1111 L
1F
1=
b111101110001000000100100 `
1<
b11110111 e
b1100 _
b11110111 d
b0 f
0c
b10 X
b111101110001000000000000 ]
b1111 h
b1110001100000001110 g
0W
1V
0K
1J
b1000000010000000100000001 (
b1000000010000000100000001 0
b1000000010000000100000001 I
0b
1i
b111110 y
b100 }
b1111011100010111001100 z
b1 |
b1111 M
b10 Y
b0 Z
b1 :
b1 {
1"
#680000
0"
#685000
0<
1\
b1 x
b1000 }
b101100 a
b111101110001000000101000 `
b101000 v
b111111 y
1"
#690000
0"
#695000
b10 G
b10 ;
b1000000 y
b10 w
0\
b0 x
1"
#700000
0"
#705000
b1010 /
b101000 +
b101000 1
b101000 8
b101000 L
0F
1-
1)
b1 }
b1000001 y
1"
#710000
0"
#715000
b1000000 f
b100000000000000 e
0-
b100000000000000 d
0)
b1000000000000000000011010110111 &
b1000000000000000000011010110111 A
b1000010 y
b10 }
b1000000000000000000011010110111 *
b1000000000000000000011010110111 4
1"
#720000
0"
#725000
b1000000000000000000000000000000 G
0E
b11111111111111111111110000000000 ;
b100000011 /
b11010110111 d
0D
b10000001101 +
b10000001101 1
b10000001101 8
b10000001101 L
1F
0=
b1000000000000000000000000101000 `
0>
b110 e
b10 _
b110 f
1c
b1101 H
b1 X
b1000000000000000000000000000000 ]
b10000000000 h
b10000001101 ^
b110000001100 j
b10000000000 g
0V
1Q
1K
0J
b10000000000 [
b0 (
b0 0
b0 I
1b
0i
b100 }
b10000000000000000000110101101 z
b0 |
b10000001101 M
b10000000000 Y
b111111111111111111111110000000000 Z
b0 :
b0 {
b1000011 y
1"
#730000
0"
#735000
b1011 /
b101100 +
b101100 1
b101100 8
b101100 L
0F
1-
1)
b1000100 y
b1 }
b110000 a
b1000000000000000000000000101100 `
b101100 v
1"
#740000
0"
#745000
19
b11111111111111111111111110100000 e
b10100000 f
b1010000000100011 d
0-
0)
b111001101010000000100011 &
b111001101010000000100011 A
b111001101010000000100011 *
b111001101010000000100011 4
b10 }
b1000101 y
1"
#750000
0"
#755000
09
b0 ;
b1 d
b0 G
b1 &
b1 A
1$
17
0%
06
b10000000000000000000000000000 /
b1 f
b0 .
b1000000000000000000000000000000 +
b1000000000000000000000000000000 1
b1000000000000000000000000000000 8
b1000000000000000000000000000000 L
1D
b101100 `
b1111 '
b1111 C
b1110 [
b1 e
b1111 _
0c
b0 H
b100 X
b111001101010000000000000 ]
b1110 h
b0 ^
b0 j
b1101010000000001110 g
1N
0Q
0K
b10 (
b10 0
b10 I
0b
b1000110 y
b100 }
b1110011010100000001000 z
b10 |
b1000000000000000000000000000000 M
b1000000000000000000000000001110 Y
b111111111111111111111111110010 Z
b1000000000000000000000000000000 :
b1000000000000000000000000000000 {
1"
#760000
0"
#765000
b10 f
b0 '
b0 C
b10 e
b10 d
b10 &
b10 A
b1000 }
b110100 a
b110000 `
b110000 v
b1000111 y
b10 ,
1"
#770000
0"
#775000
19
b100011 f
b111001101010000000100011 e
b1010000000100011 d
b111001101010000000100011 &
b111001101010000000100011 A
1-
0$
07
1%
16
b1100 /
b110000 +
b110000 1
b110000 8
b110000 L
1)
b1001000 y
b1 }
1"
#780000
0"
#785000
b10010011 f
b101111000011110010011 e
b1000011110010011 d
0-
0)
b101111000011110010011 &
b101111000011110010011 A
b101111000011110010011 *
b101111000011110010011 4
b10 }
b1001001 y
1"
#790000
0"
#795000
b10 G
1E
b10 ;
09
b0 /
1i
b10111 d
b10 +
b10 1
b10 8
b10 L
1F
0D
b101111000000000110000 `
1<
b1 [
1>
b10111 e
b100 _
b10111 f
0c
b1111 H
b1 X
b101111000000000000000 ]
b1 h
b1111 ^
b100000001110 j
b1111000100000000000 g
1W
0N
1K
b10000000000000001000 (
b10000000000000001000 0
b10000000000000001000 I
0b
b1001010 y
b100 }
b1011110000111100100 z
b1000 |
b10 M
b10 Y
b0 Z
b1 :
b1 {
1"
#800000
0"
#805000
b1101 /
b110100 +
b110100 1
b110100 8
b110100 L
0F
1-
1)
0<
b1 }
b111000 a
b101111000000000110100 `
b110100 v
b1001011 y
1"
#810000
0"
#815000
b1010000 e
b1010000 f
0-
b1010000 d
0)
b10100000000011100010011 &
b10100000000011100010011 A
b1001100 y
b10 }
b10100000000011100010011 *
b10100000000011100010011 4
1"
#820000
0"
#825000
b101 G
b101 ;
0E
b1 /
b101 +
b101 1
b101 8
b101 L
1F
b10100000000000000110100 `
b111 e
b10 _
1<
b101 [
b11100010011 d
b111 f
1c
b1110 H
b10100000000000000000000 ]
b101 h
b1110 ^
b1110 j
b100000000100 g
bx (
bx 0
bx I
1b
0i
b100 }
b101000000000111000100 z
bx |
b101 M
b101 Y
b111111111111111111111111111111011 Z
b0 :
b0 {
b1001101 y
1"
#830000
0"
#835000
b1110 /
b111000 +
b111000 1
b111000 8
b111000 L
0F
1-
1)
0<
b1001110 y
b1 }
b111100 a
b10100000000000000111000 `
b111000 v
1"
#840000
0"
#845000
19
b11111111111111111111111110010100 e
b10010100 f
b1001010011100011 d
0-
0)
b11111110111001111001010011100011 &
b11111110111001111001010011100011 A
b11111110111001111001010011100011 *
b11111110111001111001010011100011 4
b10 }
b1001111 y
1"
#850000
0"
#855000
1?
1E
b0 G
b10 ;
0%
06
b111111111111111111111111111010 /
b11111110 f
b11111111111111111111111111101011 +
b11111111111111111111111111101011 1
b11111111111111111111111111101011 8
b11111111111111111111111111101011 L
1=
b100000 `
0>
b11111111111111111111111011100111 e
b1100 _
b1111111011100111 d
b1001 H
b10 X
b11111110111001111001000000000000 ]
b11111111111111111111111111101110 h
b11111111111111111111111111101001 ^
b11111111111111111111111111101000 j
b11111111111101111001011111101110 g
0W
1T
0K
1J
b101000001010000010100000101 (
b101000001010000010100000101 0
b101000001010000010100000101 I
b1010000 y
b100 }
b111111101110011110010100111000 z
b101 |
b11111111111111111111111111101011 M
b111 Y
b111111111111111111111111111111101 Z
b10 :
b10 {
1"
#860000
0"
#865000
1-
1%
16
b1000 /
b100000 +
b100000 1
b100000 8
b100000 L
1)
b1 }
b100100 a
b1000 `
b100000 v
b1010001 y
1"
#870000
0"
#875000
09
b0 f
b10000 e
0-
b10000 d
0)
b100000000011100010011 &
b100000000011100010011 A
b1010010 y
b10 }
b100000000011100010011 *
b100000000011100010011 4
1"
#880000
0"
#885000
0E
b1 G
b1 ;
b0 /
0D
b111 f
b1 +
b1 1
b1 8
b1 L
1F
0=
0?
b100000000000000100000 `
1<
1>
b111 e
b10 _
b11100010011 d
b1110 H
b1 X
b100000000000000000000 ]
b1 h
b1110 ^
b1110 j
b100000000000 g
1W
0T
1K
0J
b1 [
b1000000000000000100000001000 (
b1000000000000000100000001000 0
b1000000000000000100000001000 I
b100 }
b1000000000111000100 z
b1000 |
b1 M
b1 Y
b111111111111111111111111111111111 Z
b0 :
b0 {
b1010011 y
1"
#890000
0"
#895000
b1001 /
b100100 +
b100100 1
b100100 8
b100100 L
0F
1-
1)
0<
b1010100 y
b1 }
b101000 a
b100000000000000100100 `
b100100 v
1"
#900000
0"
#905000
b10111 e
b10111 f
b1011100110011 d
0-
0)
b111101110001011100110011 &
b111101110001011100110011 A
b111101110001011100110011 *
b111101110001011100110011 4
b10 }
b1010101 y
1"
#910000
0"
